<?xml version="1.0" encoding="UTF-8"?>
<glyph name="three" format="1">
  <advance width="601"/>
  <unicode hex="0033"/>
  <outline>
    <contour>
      <point x="23" y="800" type="line"/>
      <point x="522.999" y="800" type="line"/>
      <point x="522.999" y="700" type="line"/>
      <point x="284.499" y="521.125" type="line"/>
      <point x="462.036" y="498.422"/>
      <point x="572.999" y="378.406"/>
      <point x="572.999" y="250" type="curve" smooth="yes"/>
      <point x="572.999" y="107.343"/>
      <point x="436.051" y="-25"/>
      <point x="222.999" y="-25" type="curve" smooth="yes"/>
      <point x="151.026" y="-25"/>
      <point x="87.7559" y="-9.87695"/>
      <point x="35.499" y="15.625" type="curve"/>
      <point x="84.5303" y="101.406" type="line"/>
      <point x="121.022" y="85.1025"/>
      <point x="166.943" y="75"/>
      <point x="222.999" y="75" type="curve" smooth="yes"/>
      <point x="396.547" y="75"/>
      <point x="472.999" y="171.743"/>
      <point x="472.999" y="250" type="curve" smooth="yes"/>
      <point x="472.999" y="328.257"/>
      <point x="396.547" y="425"/>
      <point x="222.999" y="425" type="curve" smooth="yes"/>
      <point x="200.858" y="425"/>
      <point x="180.301" y="423.417"/>
      <point x="161.281" y="420.5" type="curve"/>
      <point x="107.625" y="514.406" type="line"/>
      <point x="350.312" y="700" type="line"/>
      <point x="23" y="700" type="line"/>
    </contour>
  </outline>
  <lib>
    <dict>
      <key>com.fontlab.hintData</key>
      <dict>
	<key>hhints</key>
	<array>
	  <dict>
	    <key>position</key>	    <integer>-25</integer>
	    <key>width</key>	    <integer>100</integer>
	  </dict>
	  <dict>
	    <key>position</key>	    <integer>700</integer>
	    <key>width</key>	    <integer>100</integer>
	  </dict>
	</array>
	<key>vhints</key>
	<array>
	  <dict>
	    <key>position</key>
	    <integer>473</integer>
	    <key>width</key>
	    <integer>100</integer>
	  </dict>
	</array>
      </dict>
    </dict>
  </lib>
</glyph>
